{
  "type": "service_account",
  "project_id": "fsd-gcloud-project",
  "private_key_id": "3aec520057ba05f825493d1b7326f62d1c8caad3",
  "private_key": "-----BEGIN PRIVATE KEY-----\nMIIEvQIBADANBgkqhkiG9w0BAQEFAASCBKcwggSjAgEAAoIBAQCumy//rulsWesa\nhvHrZhYRi7K5EwMxkfOU1c6Dtd0ZqaLx12lo0IZo+TZGsd0WZGtXzk1nIkWhbeoR\nF0mRSFsUIi51mgzsiMj5CF0d6kfmeX3orwK5tCN6yPk1cX7qLKRFc3B+0rBPPiDr\nfXHxLpAe4pOOaFPGDQYhDY8dv1x0IiG3nuMHB6SP6/8Psn0GvYCYLPhS1aIrIuLN\nx9c3BAUEnByh/XPgnQoa5OONCVGNEPST2agMoZveudvtynP9rOxV1qoFRHJQX356\n9PzrSbRLFi/LRCgo7iqV5yMI8kGYmhS25n4d1B4gVfcozOIxWXp5vYyHntwUEDBN\n3zoaZEfJAgMBAAECggEAAgobAewLmvHj7p/j5IGBQXw1vraro2EWjMcAjgZKSlny\nZsvC1fAVmdVLXoEGWZQbst9chRdf49ZSVRfGCrXjJnWNwF7nxr2ER3BjEg3iAB2s\nLFMa/4tMnMsLKiYkutyBoLQL/Nc+KvbJUKba9Vu7YDj6S0AJtncBetJbORg6nrqg\nWcYjhx++WDLOGUBr4K4txfjPXpjpu5TWsxzLejOJApi3LMw1UEf0d4BK9GrXQSH/\nAxWtIxlrBzH0MEZKVe+S7RZTnl66T9YIWJVWtKud7/eXdQiZdakHSZEuuIdvas05\nFmnffijN8nD9/eHG6EO+xPix0nEk4WZSE/8A27dGgQKBgQDxPU+VI5Kn0Lz07YYD\n7U6w83rDHw3wAv9Cqyyrg+vNh169kPSnx6Hk7G2NHzMQjmDlkOaG69S0v3BjShkh\n8j4HthSqV6ge3rI2f+qYO5PA/PWRwcWPk+Z3GzztZ+TFV35gmhgBxZwe+uaJMT//\nWbtM32rOSUO2ItelIIRejWbeYQKBgQC5SigTcamrVZ+j8tioOAN6JewdqBB9UesD\npF0a+tLrstbHvHbzuustY7g676k3eQCbG3d8gBeagHFObQWO1XRKPAP6bcmUTPFG\nb9v6q+yXpTwQs7JEOJD/sgWT3Yfm2xAJLV+n+c/0smoZ5ugWKYARmyvaH0Qh6iF5\n2Th1+vhSaQKBgQC5HLPhnC9gCIPGajEI+GMG036jFURLpPEcxl77qboat0KSshWa\nXUy0blvOC1/S134xChRq+bH5lGD4P5azfr/siOKop6TBM1+LBHMOp8DEORdy5j7j\n4rjZMpR5E9zvNSkrlXLQgUNAXoTiR2F1XvSjk1jQvFVyAKB6/E22hEioYQKBgD8G\nbmNOwju5QDfwHqn5g5VE2O+tfw5hkuMGQXUv5BawGkaOYJe++MfTp5LEenaX/hDE\nYvxCRcUT83aNttpC2O93QpMoTOzYzyj6W4UEfdGHLssvlG+IHiobT7JgJB3uXaIB\ngQwN+SJunZB57m+7ZgiXE296Ox6eGQztSjs3RsghAoGAe2PgMO/Do2YYKYloNsC5\nZc7P+SuqEIfqnSrRQRlAMk4B+FMMzXPAlFyxOi3epXx9LfUa5f4AKetLMqNrjrRG\nUKm6I+ggw0AtlHpEUxZzeQCaY4UKFsOh0eV7evGuy8VFoENkKfd/bsMCMHEhonl2\nW75fLRpCAf0iobuzSy4ivgk=\n-----END PRIVATE KEY-----\n",
  "client_email": "datastoreuser@fsd-gcloud-project.iam.gserviceaccount.com",
  "client_id": "108436169599575263148",
  "auth_uri": "https://accounts.google.com/o/oauth2/auth",
  "token_uri": "https://oauth2.googleapis.com/token",
  "auth_provider_x509_cert_url": "https://www.googleapis.com/oauth2/v1/certs",
  "client_x509_cert_url": "https://www.googleapis.com/robot/v1/metadata/x509/datastoreuser%40fsd-gcloud-project.iam.gserviceaccount.com"
}
